<?xml version="1.0" encoding="UTF-8" standalone="no"?>
<!-- Created with Inkscape (http://www.inkscape.org/) -->

<svg
   width="65mm"
   height="65mm"
   viewBox="0 0 65.000001 65.000001"
   version="1.1"
   id="svg5"
   inkscape:export-filename="/home/mose/store/mosetv/mose-tv-live/themes/hugo-geekdoc/static/favicon/favicon-32x32.png"
   inkscape:export-xdpi="12.504615"
   inkscape:export-ydpi="12.504615"
   sodipodi:docname="brand.svg"
   inkscape:version="1.1.1 (3bf5ae0d25, 2021-09-20)"
   xmlns:inkscape="http://www.inkscape.org/namespaces/inkscape"
   xmlns:sodipodi="http://sodipodi.sourceforge.net/DTD/sodipodi-0.dtd"
   xmlns="http://www.w3.org/2000/svg"
   xmlns:svg="http://www.w3.org/2000/svg">
  <sodipodi:namedview
     id="namedview7"
     pagecolor="#ffffff"
     bordercolor="#666666"
     borderopacity="1.0"
     inkscape:pageshadow="2"
     inkscape:pageopacity="0.0"
     inkscape:pagecheckerboard="0"
     inkscape:document-units="mm"
     showgrid="false"
     inkscape:zoom="5.0108013"
     inkscape:cx="122.83465"
     inkscape:cy="122.83465"
     inkscape:window-width="2558"
     inkscape:window-height="1416"
     inkscape:window-x="2560"
     inkscape:window-y="0"
     inkscape:window-maximized="1"
     inkscape:current-layer="layer1" />
  <defs
     id="defs2" />
  <g
     inkscape:label="Layer 1"
     inkscape:groupmode="layer"
     id="layer1"
     transform="translate(-72.688507,-123.60543)">
    <rect
       style="opacity:0.997;fill:#5555ff;fill-opacity:1;stroke:#000000;stroke-width:0;stroke-linecap:round"
       id="rect23222"
       width="64.622978"
       height="49.789135"
       x="72.877014"
       y="131.21086"
       ry="12.386812" />
    <g
       aria-label="M"
       id="text2360-1"
       style="font-size:10.5833px;line-height:1.25;letter-spacing:0px;word-spacing:0px;white-space:pre;inline-size:25.1451;fill:#ffcc00;stroke-width:0.264583"
       transform="matrix(2.4680808,0,0,4.3505324,-167.40747,-940.80353)" />
    <g
       aria-label="M"
       id="text24854"
       style="font-size:54.2158px;line-height:1.25;letter-spacing:0px;word-spacing:0px;fill:#ffaa00;fill-opacity:1;stroke-width:1.3554"
       transform="matrix(0.94521052,0,0,0.94521052,54.017623,-1.1581103)">
      <path
         d="m 55.442776,147.35857 c 0.903597,0 1.68069,0.32529 2.33128,0.97588 l 19.405319,13.52006 c 3.634027,2.8159 3.663625,6.2054 0.02711,9.02693 L 57.88249,184.44218 c -0.614445,0.61445 -1.427682,0.92167 -2.439711,0.92167 -1.012028,0 -1.843337,-0.30722 -2.493927,-0.92167 -0.614445,-0.61445 -0.921668,-1.40961 -0.921668,-2.3855 v -21.84897 l -5.770607,8.37072 c -0.361439,0.43373 -0.777093,0.79516 -1.246964,1.08431 -0.46987,0.25301 -0.957812,0.36144 -1.463826,0.3253 -0.469871,0.0361 -0.939741,-0.0723 -1.409611,-0.3253 -0.469871,-0.28915 -0.885525,-0.65058 -1.246964,-1.08431 l -6.299774,-8.85866 v 22.37325 c 0,0.97589 -0.289151,1.77105 -0.867453,2.3855 -0.578302,0.61445 -1.337323,0.92167 -2.277063,0.92167 -0.903597,0 -1.644546,-0.30722 -2.222848,-0.92167 -0.578302,-0.65059 -0.867453,-1.44576 -0.867453,-2.3855 v -31.42729 c 0,-0.90359 0.325295,-1.68069 0.975884,-2.33128 0.686734,-0.65059 1.499971,-0.97588 2.439711,-0.97588 0.542158,0 1.084316,0.14458 1.626474,0.43373 0.542158,0.25301 0.957813,0.59637 1.246964,1.0301 l 9.173212,12.87062 8.969339,-12.87062 c 0.289151,-0.43373 0.668661,-0.77709 1.138532,-1.0301 0.506014,-0.28915 1.012028,-0.43373 1.518042,-0.43373 z"
         style="font-weight:bold;font-family:Quicksand;-inkscape-font-specification:'Quicksand, Bold';fill:#ffaa00;fill-opacity:1"
         id="path28666"
         sodipodi:nodetypes="sccccscscccccccssscsscscccccss" />
    </g>
  </g>
</svg>
